<?xml version="1.0" encoding="utf-8"?>
<!-- Generator: Adobe Illustrator 17.0.0, SVG Export Plug-In . SVG Version: 6.00 Build 0)  -->
<!DOCTYPE svg PUBLIC "-//W3C//DTD SVG 1.1//EN" "http://www.w3.org/Graphics/SVG/1.1/DTD/svg11.dtd">
<svg version="1.1" id="Слой_1" xmlns="http://www.w3.org/2000/svg" xmlns:xlink="http://www.w3.org/1999/xlink" x="0px" y="0px"
	 width="59px" height="59px" viewBox="0 0 59 59" enable-background="new 0 0 59 59" xml:space="preserve">
<g>
	<circle fill="#00775B" cx="29.5" cy="29.5" r="29.5"/>
	<polygon fill="#FFFFFF" points="29.506,29.498 29.506,12.648 46.319,12.648 	"/>
	<polygon fill="#FFFFFF" points="46.319,46.339 29.506,46.339 29.506,29.489 	"/>
</g>
</svg>
