<?xml version="1.0" encoding="utf-8"?>
<!-- Generator: Adobe Illustrator 21.0.2, SVG Export Plug-In . SVG Version: 6.00 Build 0)  -->
<svg version="1.1" xmlns="http://www.w3.org/2000/svg" xmlns:xlink="http://www.w3.org/1999/xlink" x="0px" y="0px"
	 viewBox="0 0 287 117.3" style="enable-background:new 0 0 287 117.3;" xml:space="preserve">
<g id="Layer_2">
</g>
<g id="Layer_1">
	<g>
		<g>
			<polygon points="9,64.2 9,30.2 38.4,64.2 50.8,64.2 19.1,28.7 47.6,0 35.5,0 9,27.9 9,0 0.2,0 0.2,64.2 			"/>
			<path d="M65,40.3c0-10.1,2-16.3,13.4-16.7c1.2,0,2.7,0,3.9,0.5v-8.6c-1,0-2-0.1-3.1-0.1c-6.6,0-12.6,3.3-14,10H65V16h-9v48.1h9
				C65,64.2,65,40.3,65,40.3z"/>
			<path d="M269.7,40.3c0-10.1,2-16.3,13.4-16.7c1.2,0,2.7,0,3.9,0.5v-8.6c-1,0-2-0.1-3.1-0.1c-6.6,0-12.6,3.3-14,10h-0.2V16h-9
				v48.1h9V40.3z"/>
			<path d="M124.9,40.9c0,1.2-0.1,6.8-1.8,11.4c-1.9,5-7,6.9-10.7,6.9c-8.7,0-10.6-6.2-10.6-14.6V16h-9.1v32.4
				c0,9.8,7.1,17.3,16.5,17.3c6.7,0,12.1-2.4,15.7-8.4h0.2v6.9h8.9V16h-9.1L124.9,40.9L124.9,40.9z"/>
			<path d="M155.3,39.2c0-7.7,2.9-18,13.6-18c9.9,0,13.6,8.6,13.6,18c0,9.4-3.7,18-13.6,18C158.2,57.2,155.3,46.9,155.3,39.2z
				 M182.5,23.3c0,0.7-1.3-2.1-1.5-2.3c-3-4.5-8.2-6.4-12.9-6.4c-14.7,0-22.5,11.1-22.5,25.2c0,13.7,6.9,24.5,20.6,24.5
				c6,0,13-2.7,15.9-8.5h0.3c-0.3,11-0.3,21.9-13.3,21.9c-6.5,0-10.9-2.5-11.3-9h-9.7c0,10.8,10.3,15.9,19.9,15.9
				c15.8,0,23.6-7.4,23.6-25.3V24.7c0-2.9,0.3-5.8,0.6-8.7h-9.4L182.5,23.3z"/>
			<path d="M247.9,41.5v-4.5c0-13.1-6.7-21.6-20.7-21.9c-14.9,0-21.9,11.1-21.9,25c0,14,7.5,24.8,21.1,24.8
				c11.3,0,19.5-5.4,20.9-16.2h-9.4c-1,6.9-4.5,9.7-11.5,9.7c-9.1,0-12.5-8.6-11.8-16.9L247.9,41.5L247.9,41.5z M214.6,35.3
				c0-7.8,4.4-14.1,11.8-14.1c8.6,0,12.2,6.1,12,14.1H214.6z"/>
		</g>
	</g>
	<g>
		<path d="M0,116.8V94.3h5.7c4.3-0.1,9.2,1,9.2,6.4c0,5.4-4.9,6.5-9.2,6.4H2v9.8H0z M2,105.1H7c3,0,5.7-1,5.7-4.5
			c0-3.5-2.7-4.5-5.7-4.5H2V105.1z"/>
		<path d="M20.4,116.8h-1.9v-12.2c0-1.2-0.1-2.5-0.2-3.5h1.9l0.1,2.3h0.1c0.6-1.6,2-2.7,3.5-2.8c0.6,0,1.3,0,1.9,0v1.8
			c-0.4,0-0.8-0.1-1.2-0.1c-2.8,0-4.3,2-4.3,5L20.4,116.8L20.4,116.8z"/>
		<path d="M42.4,109c0,4.1-2.3,8.3-7.3,8.3s-7.3-4.2-7.3-8.3c0-4.1,2.3-8.3,7.3-8.3S42.4,104.8,42.4,109z M35.1,102.4
			c-3.8,0-5.3,3.7-5.3,6.6c0,2.9,1.5,6.6,5.3,6.6s5.3-3.7,5.3-6.6C40.4,106.1,38.9,102.4,35.1,102.4z"/>
		<path d="M57.1,114.5l-0.1-0.1c-1.3,1.9-3.2,2.9-5.4,2.9c-4.7,0-6.4-4.4-6.4-8.4c0-4.1,1.8-8.3,6.4-8.3c2.1,0,4.3,1,5.4,2.8
			l0.1-0.1v-9.2H59v19c0,1.2,0.1,2.5,0.2,3.5h-1.9L57.1,114.5z M52,102.4c-3.6,0-4.7,3.3-4.7,6.3c0,2.9,0.8,6.9,4.4,6.9
			c4.1,0,5.3-3.4,5.3-7C57,105.4,55.6,102.4,52,102.4z"/>
		<path d="M74.2,101.1H76v12.2c0,1.2,0.1,2.5,0.2,3.5h-1.9l-0.1-2.3l-0.1-0.1c-1.1,1.9-2.9,2.8-4.9,2.8c-5.1,0-5.5-4.5-5.5-6.3v-9.8
			h1.9v10.1c0,2.7,1.6,4.3,4.1,4.3c3.1,0,4.5-2.6,4.5-5.4L74.2,101.1L74.2,101.1z"/>
		<path d="M90.9,105.9c-0.2-2.4-1.7-3.6-4.3-3.6c-2.9,0-4.7,3-4.7,6.6c0,3.6,1.8,6.6,4.7,6.6c2.4,0,4.1-1.5,4.3-3.7h2
			c-0.5,3.6-2.6,5.4-6.1,5.4c-4.7,0-6.9-4-6.9-8.3c0-4.3,2.3-8.3,7-8.3c3.2,0,5.8,1.9,6,5.3L90.9,105.9L90.9,105.9z"/>
		<path d="M98,102.8h-3.1v-1.7H98v-3.3l1.9-0.8v4.2h3.6v1.7h-3.6v10.5c0,1.4,0.7,2.2,2.2,2.2c0.6,0,1.1,0,1.6-0.2v1.6
			c-0.6,0.2-1.3,0.3-1.9,0.3c-4,0-3.8-2.5-3.8-4.7V102.8z"/>
		<path d="M112.3,100.7c3,0,5.5,1,5.7,4.3h-2c-0.2-2-1.9-2.6-3.9-2.6c-1.8,0-3.5,0.7-3.5,2.5c0,2.3,3,2.1,7.3,3.6
			c1.6,0.6,2.7,2,2.7,3.7c0,3.5-3.3,5.1-6.6,5.1c-2.7,0-5.8-1.3-5.9-4.8h2c0.2,2.3,2.2,3,4.3,3c2,0,4.1-0.9,4.1-3.1
			c0-2.3-2.5-2.6-5-3.2c-2.5-0.6-5-1.3-5-4.2C106.5,101.8,109.5,100.7,112.3,100.7z"/>
	</g>
</g>
</svg>
