<?xml version="1.0" encoding="utf-8"?>
<!-- Generator: Adobe Illustrator 16.0.0, SVG Export Plug-In . SVG Version: 6.00 Build 0)  -->
<!DOCTYPE svg PUBLIC "-//W3C//DTD SVG 1.1//EN" "http://www.w3.org/Graphics/SVG/1.1/DTD/svg11.dtd">
<svg version="1.1" id="Layer_1" xmlns="http://www.w3.org/2000/svg" xmlns:xlink="http://www.w3.org/1999/xlink" x="0px" y="0px"
	 width="290.955px" height="112.305px" viewBox="0 0 290.955 112.305" enable-background="new 0 0 290.955 112.305"
	 xml:space="preserve">
<g>
	<g>
		<g>
			<defs>
				<path id="SVGID_1_" d="M56.151,0c-14.369,0-28.74,5.482-39.705,16.448c-0.021,0.019-0.041,0.039-0.062,0.059
					C5.463,27.463,0,41.809,0,56.151c0,4.326,0.498,8.652,1.49,12.886c1.53,6.509,4.23,12.798,8.108,18.529
					c1.976,2.922,4.259,5.701,6.849,8.289c4.7,4.703,10.027,8.396,15.712,11.08c5.945,2.81,12.28,4.514,18.701,5.121
					c1.003,0.091,2.007,0.16,3.011,0.199c0.761,0.031,1.522,0.047,2.282,0.049c14.343,0,28.688-5.463,39.643-16.386
					c0.022-0.021,0.041-0.04,0.062-0.062c10.964-10.964,16.445-25.335,16.445-39.704c0-0.761-0.017-1.521-0.048-2.281
					c-0.039-1.006-0.104-2.011-0.2-3.013c-0.604-6.421-2.312-12.756-5.12-18.702c-2.686-5.683-6.378-11.01-11.078-15.711
					c-2.591-2.589-5.367-4.874-8.292-6.85c-5.731-3.876-12.021-6.579-18.529-8.106C64.807,0.498,60.486,0,56.163,0H56.151z"/>
			</defs>
			<clipPath id="SVGID_2_">
				<use xlink:href="#SVGID_1_"  overflow="visible"/>
			</clipPath>
			<g clip-path="url(#SVGID_2_)">
				<g>
					<g>
						<defs>
							<rect id="SVGID_3_" x="0" y="0" width="112.305" height="112.305"/>
						</defs>
						<clipPath id="SVGID_4_">
							<use xlink:href="#SVGID_3_"  overflow="visible"/>
						</clipPath>
						<g clip-path="url(#SVGID_4_)">
							
								<image overflow="visible" enable-background="new    " width="235" height="238" xlink:href="F1F0F6E763784297.jpeg"  transform="matrix(0.478 0 0 0.4719 -2.441406e-04 2.441406e-04)">
							</image>
						</g>
					</g>
				</g>
			</g>
			<polygon clip-path="url(#SVGID_2_)" fill="#FFFFFF" points="56.163,56.148 56.163,24.076 88.166,24.076 			"/>
			<polygon clip-path="url(#SVGID_2_)" fill="#FFFFFF" points="56.163,56.131 56.163,88.205 88.166,88.205 			"/>
		</g>
	</g>
</g>
<g>
	<g>
		<polygon points="135.58,66.066 135.58,47.066 151.99,66.066 158.933,66.066 141.247,46.272 157.16,30.205 150.412,30.205 
			135.58,45.774 135.58,30.205 130.654,30.205 130.654,66.066 		"/>
		<path d="M166.904,52.707c0-5.671,1.108-9.101,7.483-9.315c0.689,0,1.486,0,2.174,0.267v-4.812c-0.583,0-1.112-0.057-1.751-0.057
			c-3.66,0-7.06,1.871-7.805,5.567h-0.102v-5.19h-5.048v26.897h5.048V52.707z"/>
		<path d="M281.3,52.707c0-5.671,1.106-9.101,7.481-9.315c0.689,0,1.488,0,2.174,0.267v-4.812c-0.583,0-1.112-0.057-1.75-0.057
			c-3.661,0-7.058,1.871-7.805,5.567H281.3v-5.19h-5.049v26.897h5.049V52.707z"/>
		<path d="M200.386,53.052c0,0.648-0.047,3.829-1.012,6.364c-1.074,2.804-3.91,3.883-5.996,3.883c-4.868,0-5.943-3.45-5.943-8.146
			V39.168h-5.078v18.091c0,5.45,3.95,9.681,9.25,9.681c3.754,0,6.747-1.324,8.778-4.72h0.111v3.846h4.976V39.168h-5.088v13.885
			H200.386z"/>
		<path d="M217.372,52.118c0-4.298,1.621-10.057,7.604-10.057c5.557,0,7.606,4.782,7.606,10.057c0,5.271-2.051,10.055-7.606,10.055
			C218.993,62.173,217.372,56.409,217.372,52.118z M232.582,43.203c0,0.382-0.71-1.199-0.814-1.305
			c-1.671-2.498-4.58-3.584-7.22-3.584c-8.202,0-12.569,6.195-12.569,14.075c0,7.662,3.85,13.677,11.54,13.677
			c3.343,0,7.281-1.502,8.903-4.764h0.16c-0.16,6.14-0.16,12.229-7.448,12.229c-3.609,0-6.088-1.416-6.302-5.052h-5.4
			c0,6.014,5.758,8.866,11.103,8.866c8.854,0,13.168-4.141,13.168-14.147V44.018c0-1.629,0.161-3.228,0.322-4.85h-5.28
			L232.582,43.203z"/>
		<path d="M269.085,53.413v-2.488c0-7.344-3.727-12.065-11.593-12.223c-8.343,0-12.223,6.201-12.223,13.971
			c0,7.823,4.172,13.853,11.803,13.853c6.295,0,10.91-3.019,11.7-9.044h-5.244c-0.58,3.861-2.521,5.396-6.402,5.396
			c-5.092,0-6.979-4.813-6.611-9.465L269.085,53.413L269.085,53.413z M250.513,49.921c0-4.333,2.467-7.873,6.612-7.873
			c4.82,0,6.816,3.427,6.712,7.873H250.513z"/>
	</g>
</g>
<g>
	<path d="M130.546,94.322V77.559h4.202c3.227-0.07,6.848,0.743,6.848,4.736s-3.621,4.807-6.848,4.736h-2.692v7.29H130.546z
		 M132.055,85.638h3.668c2.251,0,4.247-0.72,4.247-3.343c0-2.624-1.996-3.344-4.247-3.344h-3.668V85.638z"/>
	<path d="M145.66,94.322h-1.393V85.29c0.022-0.906-0.07-1.834-0.117-2.623h1.439l0.07,1.717h0.048
		c0.417-1.183,1.46-2.02,2.621-2.065c0.465-0.023,0.93,0,1.394,0.022v1.348c-0.278-0.024-0.58-0.093-0.859-0.093
		c-2.066,0-3.156,1.485-3.203,3.714V94.322L145.66,94.322z"/>
	<path d="M162.027,88.493c0,3.064-1.718,6.176-5.434,6.176c-3.714,0-5.431-3.111-5.431-6.176s1.717-6.175,5.431-6.175
		C160.309,82.319,162.027,85.429,162.027,88.493z M156.594,83.595c-2.808,0-3.924,2.739-3.924,4.898s1.116,4.898,3.924,4.898
		c2.81,0,3.926-2.739,3.926-4.898S159.402,83.595,156.594,83.595z"/>
	<path d="M172.939,92.604l-0.047-0.094c-0.952,1.394-2.367,2.159-3.993,2.159c-3.459,0-4.782-3.297-4.782-6.224
		c0-3.017,1.323-6.128,4.782-6.128c1.557,0,3.18,0.743,3.993,2.112l0.047-0.046v-6.825h1.392v14.138
		c0,0.907,0.071,1.835,0.116,2.625h-1.438L172.939,92.604z M169.131,83.595c-2.646,0-3.506,2.46-3.506,4.689
		c0,2.16,0.628,5.107,3.298,5.107c3.041,0,3.971-2.53,3.971-5.176C172.892,85.848,171.847,83.595,169.131,83.595z"/>
	<path d="M185.615,82.665h1.393v9.031c0,0.907,0.07,1.835,0.117,2.625h-1.439l-0.07-1.718l-0.047-0.048
		c-0.812,1.439-2.135,2.113-3.645,2.113c-3.809,0-4.109-3.367-4.109-4.713v-7.291h1.394v7.522c0,2.021,1.16,3.204,3.064,3.204
		c2.296,0,3.341-1.927,3.341-4.016v-6.711H185.615z"/>
	<path d="M198.082,86.241c-0.115-1.788-1.253-2.646-3.18-2.646c-2.136,0-3.459,2.229-3.459,4.875c0,2.669,1.323,4.922,3.459,4.922
		c1.812,0,3.064-1.114,3.18-2.717h1.51c-0.371,2.671-1.903,3.994-4.551,3.994c-3.481,0-5.107-2.994-5.107-6.176
		c0-3.159,1.741-6.175,5.2-6.175c2.392,0,4.342,1.439,4.458,3.923H198.082L198.082,86.241z"/>
	<path d="M203.33,83.944h-2.323v-1.276h2.323v-2.484l1.393-0.604v3.087h2.645v1.278h-2.645v7.8
		c-0.024,1.067,0.534,1.648,1.602,1.648c0.417,0,0.835-0.023,1.207-0.139v1.207c-0.44,0.116-0.953,0.209-1.417,0.209
		c-2.947,0-2.784-1.881-2.784-3.459V83.944z"/>
	<path d="M213.94,82.318c2.205,0,4.062,0.768,4.25,3.228h-1.511c-0.14-1.464-1.44-1.95-2.878-1.95c-1.301,0-2.624,0.511-2.624,1.879
		c0,1.719,2.25,1.558,5.409,2.671c1.207,0.418,1.974,1.465,1.974,2.717c0,2.622-2.438,3.807-4.898,3.807
		c-2.021,0-4.343-0.95-4.389-3.529h1.51c0.114,1.741,1.648,2.253,3.227,2.253c1.486,0,3.04-0.696,3.04-2.32
		c0-1.673-1.834-1.951-3.692-2.369c-1.833-0.44-3.69-0.975-3.69-3.134C209.667,83.155,211.898,82.318,213.94,82.318z"/>
</g>
</svg>
